{
    "extends": [
        "tslint-react",
        "tslint-config-airbnb"
    ],
    "rules": {
        "indent": [
            true,
            "spaces",
            2
        ],
        "ter-indent": [
            true,
            2,
            {
                "SwitchCase": 1
            }
        ],
        "jsx-alignment": true,
        "jsx-equals-spacing": [
            true,
            "never"
        ],
        "jsx-no-bind": true,
        "jsx-no-lambda": false,
        "jsx-wrap-multiline": false,
        "no-console": [
            true,
            "log"
        ],
        "import-name": [false],
        "jsx-no-multiline-js": false,
        "ordered-imports": true
    }
}